{
"max_len" : 15,
"max_features" : 20000,
"batch_size" : 100,
"epochs" : 3,
"validation_split" : 0.2,
"path" : {
         "dictionary" : "./YTC Model/Model_Parameters/spamfilter_twitter_dictionary.json",
         "model" : "./YTC Model/Model_Parameters/spamfilter_twitter_model.json",
         "weights" : "./YCT Model/Model_Parameters/spamfilter_twitter_weights.h5",
		 "traindata" : "./YTC Model/YouTube Comments Data/traindata.csv",
		 "testdata" : "./YTC Model/YouTube Comments Data/testdata.csv",
		 "resultdata" : "./YTC Model/YouTube Comments Data/resultdata.csv",
		 "realdata" : "./YTC Model/YouTube Comments Data/realdata.csv"
         },
"label" : {
          "1" : "ham",
		  "2" : "spam",
		  "3" : ""
          }		 		 
}